Categories:Internet
License:MPL-2.0
Web Site:https://syncthing.net
Source Code:https://github.com/syncthing/syncthing-android
Issue Tracker:https://github.com/syncthing/syncthing-android/issues
Changelog:https://github.com/syncthing/syncthing-android/releases
Donate:https://syncthing.net/#donate

Auto Name:Syncthing
Summary:File synchronization
Description:
Syncthing replaces proprietary sync and cloud services with something open,
trustworthy and decentralized. Your data is your data alone and you deserve to
choose where it is stored, if it is shared with some third party and how it's
transmitted over the Internet.
.

Repo Type:git
Repo:https://github.com/syncthing/syncthing-android.git

Build:0.4.8,22
    commit=80072194b94e0ca0f81e5bc3b88c8f88867e2e5c
    submodules=yes
    gradle=fat

Build:0.4.9,23
    commit=0.4.9
    submodules=yes
    gradle=fat

Build:0.5.0-beta2,24
    commit=0.5.0-beta2
    submodules=yes
    gradle=fat

Build:0.4.11,25
    commit=0.4.11
    submodules=yes
    gradle=fat

Build:0.4.12,26
    commit=0.4.12
    submodules=yes
    gradle=fat

Build:0.4.13,27
    commit=0.4.13
    submodules=yes
    gradle=fat

Build:0.4.14,28
    commit=0.4.14
    submodules=yes
    gradle=fat

Build:0.4.15,29
    commit=0.4.15
    submodules=yes
    gradle=fat

Build:0.4.16,30
    commit=0.4.16
    submodules=yes
    gradle=fat

Build:0.4.17,31
    commit=0.4.17
    submodules=yes
    gradle=fat

Build:0.4.18,32
    commit=0.4.18
    submodules=yes
    gradle=fat

Build:0.5.0-beta4,33
    commit=0.5.0-beta4
    submodules=yes
    gradle=fat

Build:0.5.0-beta5,34
    commit=0.5.0-beta5
    submodules=yes
    gradle=fat

Build:0.5.0-beta6,35
    commit=0.5.0-beta6
    submodules=yes
    gradle=fat

Build:0.5.0-beta7,36
    commit=0.5.0-beta7
    submodules=yes
    gradle=fat

Build:0.5.0,37
    commit=0.5.0
    submodules=yes
    gradle=fat

Build:0.5.1,38
    commit=0.5.1
    submodules=yes
    gradle=fat

Build:0.5.2,39
    commit=0.5.2
    submodules=yes
    gradle=fat

Build:0.5.4,41
    commit=0.5.4
    submodules=yes
    gradle=fat

Build:0.5.5,42
    commit=0.5.5
    submodules=yes
    gradle=fat

Build:0.5.6,43
    commit=0.5.6
    submodules=yes
    gradle=fat

Build:0.5.7,44
    commit=0.5.7
    submodules=yes
    gradle=fat

Build:0.5.8,45
    commit=0.5.8
    submodules=yes
    gradle=fat

Build:0.5.9,46
    commit=0.5.9
    submodules=yes
    gradle=fat

Build:0.5.10,47
    commit=0.5.10
    submodules=yes
    gradle=fat

Build:0.5.11,48
    commit=0.5.11
    submodules=yes
    gradle=fat

Build:0.5.12,49
    commit=0.5.12
    submodules=yes
    gradle=fat

Build:0.5.13,50
    commit=0.5.13
    submodules=yes
    gradle=fat

Build:0.5.14,51
    disable=failing build
    commit=0.5.14
    submodules=yes
    gradle=fat

Build:0.5.15,52
    commit=0.5.15
    submodules=yes
    gradle=fat

Build:0.5.16,53
    commit=0.5.16
    submodules=yes
    gradle=fat

Build:0.5.17,54
    commit=0.5.17
    submodules=yes
    gradle=fat

Build:0.5.18,55
    commit=0.5.18
    submodules=yes
    gradle=fat

Build:0.5.20,57
    commit=0.5.20
    submodules=yes
    gradle=fat

Build:0.5.21,58
    commit=0.5.21
    submodules=yes
    gradle=fat

Build:0.5.22,59
    commit=0.5.22
    submodules=yes
    gradle=fat

Build:0.5.24,61
    commit=0.5.24
    submodules=yes
    gradle=fat

Build:0.5.26,63
    commit=0.5.26
    submodules=yes
    gradle=fat

Build:0.5.27,64
    commit=0.5.27
    submodules=yes
    gradle=fat

Build:0.5.28,65
    commit=0.5.28
    submodules=yes
    gradle=fat

Build:0.6.0,66
    commit=0.6.0
    submodules=yes
    gradle=fat

Build:0.6.1,67
    commit=0.6.1
    submodules=yes
    gradle=fat

Build:0.6.2,68
    commit=0.6.2
    submodules=yes
    gradle=fat

Build:0.6.3,69
    commit=0.6.3
    submodules=yes
    gradle=fat

Build:0.6.4,70
    commit=0.6.4
    submodules=yes
    gradle=fat

Build:0.6.5,71
    commit=0.6.5
    submodules=yes
    gradle=fat

Build:0.6.6,72
    commit=0.6.6
    submodules=yes
    gradle=fat

Build:0.7.0,75
    disable=third party maven repo
    commit=0.7.0
    submodules=yes
    gradle=fat

Build:0.7.1,76
    disable=remove apk
    commit=0.7.1
    submodules=yes
    gradle=fat

Build:0.7.4,78
    commit=0.7.4
    submodules=yes
    gradle=fat

Build:0.7.5-beta1,79
    disable=broken, original build was missing buildNative
    commit=0.7.5-beta1
    submodules=yes
    gradle=fat
    scandelete=ext/golang/go/src/debug/,ext/golang/go1.4/src/debug/
    preassemble=buildNative

Build:0.7.5-beta2,80
    commit=0.7.5-beta2
    submodules=yes
    gradle=fat
    scandelete=ext/golang/go/src/debug/,ext/golang/go1.4/src/debug/
    preassemble=buildNative

Build:0.7.5,81
    commit=0.7.5
    submodules=yes
    gradle=fat
    scandelete=ext/golang/go/src/debug/,ext/golang/go1.4/src/debug/
    preassemble=buildNative

Build:0.7.6,82
    commit=0.7.6
    submodules=yes
    gradle=fat
    scandelete=ext/golang/go/src/debug/,ext/golang/go1.4/src/debug/
    preassemble=buildNative

Build:0.7.7,83
    commit=0.7.7
    submodules=yes
    gradle=fat
    scandelete=ext/golang/go/src/debug/,ext/golang/go1.4/src/debug/
    preassemble=buildNative

Build:0.7.8,84
    commit=0.7.8
    submodules=yes
    gradle=fat
    scandelete=ext/golang/go/src/debug/,ext/golang/go1.4/src/debug/
    preassemble=buildNative

Build:0.7.9,85
    commit=0.7.9
    submodules=yes
    gradle=fat
    scandelete=ext/golang/go/src/debug/,ext/golang/go1.4/src/debug/
    preassemble=buildNative

Build:0.7.10,86
    commit=0.7.10
    submodules=yes
    gradle=fat
    scandelete=ext/golang/go/src/debug/,ext/golang/go1.4/src/debug/
    preassemble=buildNative

Build:0.7.11,87
    commit=0.7.11
    submodules=yes
    gradle=fat
    scandelete=ext/golang/go/src/debug/,ext/golang/go1.4/src/debug/
    preassemble=buildNative

Build:0.7.12,88
    disable=go build failure
    commit=0.7.12
    submodules=yes
    gradle=fat
    scandelete=ext/golang/go/src/debug/,ext/golang/go1.4/src/debug/
    preassemble=buildNative

Build:0.7.15,91
    commit=0.7.15
    submodules=yes
    gradle=fat
    scanignore=ext/golang
    preassemble=buildNative

Build:0.7.16,92
    commit=0.7.16
    submodules=yes
    gradle=fat
    scanignore=ext/golang
    preassemble=buildNative

Build:0.7.17,93
    commit=0.7.17
    submodules=yes
    gradle=fat
    scanignore=ext/golang
    preassemble=buildNative

Build:0.7.18,95
    commit=0.7.18
    submodules=yes
    gradle=fat
    scanignore=ext/golang
    preassemble=buildNative

Build:0.7.19,96
    commit=0.7.19
    submodules=yes
    gradle=fat
    scanignore=ext/golang
    preassemble=buildNative

Build:0.7.20,97
    commit=0.7.20
    submodules=yes
    gradle=fat
    scanignore=ext/golang
    preassemble=buildNative

Build:0.7.21,98
    commit=0.7.21
    submodules=yes
    gradle=fat
    scanignore=ext/golang
    preassemble=buildNative

Build:0.8.0,99
    commit=0.8.0
    submodules=yes
    gradle=fat
    scanignore=ext/golang
    preassemble=buildNative

Build:0.8.1,100
    commit=0.8.1
    submodules=yes
    gradle=fat
    scanignore=ext/golang
    preassemble=buildNative

Build:0.8.2,101
    commit=0.8.2
    submodules=yes
    gradle=fat
    scanignore=ext/golang
    preassemble=buildNative

Build:0.8.3,102
    commit=0.8.3
    submodules=yes
    gradle=fat
    scanignore=ext/golang
    preassemble=buildNative

Build:0.8.4,103
    commit=0.8.4
    submodules=yes
    gradle=fat
    scanignore=ext/golang
    preassemble=buildNative

Build:0.8.6,105
    commit=0.8.6
    submodules=yes
    gradle=fat
    scanignore=ext/golang
    scandelete=ext/syncthing/src/github.com/syncthing/syncthing/cmd/stdiscosrv/stdiscosrv
    preassemble=buildNative

Build:0.8.7,106
    commit=0.8.7
    submodules=yes
    gradle=fat
    scanignore=ext/golang
    preassemble=buildNative

Build:0.8.8,107
    commit=0.8.8
    submodules=yes
    gradle=fat
    scanignore=ext/golang
    preassemble=buildNative

Build:0.9.0,110
    commit=0.9.0
    submodules=yes
    gradle=fat
    scanignore=ext/golang
    preassemble=buildNative

Build:0.9.1,111
    commit=0.9.1
    submodules=yes
    gradle=fat
    scanignore=ext/golang
    preassemble=buildNative

Build:0.9.2,112
    commit=0.9.2
    submodules=yes
    gradle=fat
    scanignore=ext/golang
    preassemble=buildNative

Build:0.9.3,4113
    commit=0.9.3
    submodules=yes
    gradle=yes
    scanignore=ext/golang
    preassemble=buildNative

Build:0.9.4,4114
    commit=0.9.4
    submodules=yes
    gradle=yes
    scanignore=ext/golang
    preassemble=buildNative

Build:0.9.5,4115
    commit=0.9.5
    submodules=yes
    gradle=yes
    scanignore=ext/golang
    preassemble=buildNative

Build:0.9.6,4116
    commit=0.9.6
    submodules=yes
    gradle=yes
    scanignore=ext/golang
    preassemble=buildNative

Build:0.9.7,4117
    commit=0.9.7
    submodules=yes
    gradle=yes
    scanignore=ext/golang
    preassemble=buildNative

Build:0.9.8,4118
    commit=0.9.8
    submodules=yes
    gradle=yes
    scanignore=ext/golang
    preassemble=buildNative

Build:0.9.9,4119
    commit=0.9.9
    submodules=yes
    gradle=yes
    scanignore=ext/golang
    preassemble=buildNative

Build:0.9.10,4120
    disable=pre-release build
    commit=0.9.10
    submodules=yes
    gradle=yes
    scanignore=ext/golang
    preassemble=buildNative

Build:0.9.11,4121
    commit=0.9.11
    submodules=yes
    gradle=yes
    scanignore=ext/golang
    preassemble=buildNative

Auto Update Mode:Version %v
Update Check Mode:Tags ^[0-9.]*$
Current Version:0.9.11
Current Version Code:4121
